Machine Learning Workflow: Classification Trees
…
Heart <- read_csv("../data/Heart.csv") 
Heart <-  Heart %>% 
  # first column is patient ID, which we don't need
  select(-1) %>%
  # RestECG is categorical with value 0, 1, 2
  mutate(RestECG = as.character(RestECG)) %>%
  print(width = Inf)

# A tibble: 303 × 14
     Age   Sex ChestPain    RestBP  Chol   Fbs RestECG MaxHR ExAng Oldpeak Slope
   <dbl> <dbl> <chr>         <dbl> <dbl> <dbl> <chr>   <dbl> <dbl>   <dbl> <dbl>
 1    63     1 typical         145   233     1 2         150     0     2.3     3
 2    67     1 asymptomatic    160   286     0 2         108     1     1.5     2
 3    67     1 asymptomatic    120   229     0 2         129     1     2.6     2
 4    37     1 nonanginal      130   250     0 0         187     0     3.5     3
 5    41     0 nontypical      130   204     0 2         172     0     1.4     1
 6    56     1 nontypical      120   236     0 0         178     0     0.8     1
 7    62     0 asymptomatic    140   268     0 2         160     0     3.6     3
 8    57     0 asymptomatic    120   354     0 0         163     1     0.6     1
 9    63     1 asymptomatic    130   254     0 2         147     0     1.4     2
10    53     1 asymptomatic    140   203     1 2         155     1     3.1     3
      Ca Thal       AHD  
   <dbl> <chr>      <chr>
 1     0 fixed      No   
 2     3 normal     Yes  
 3     2 reversable Yes  
 4     0 normal     No   
 5     0 normal     No   
 6     0 normal     No   
 7     2 normal     Yes  
 8     0 normal     No   
 9     1 reversable Yes  
10     0 reversable Yes  
# ℹ 293 more rows
…
Run `show_notes(.Last.tune.result)` for more information.

Visualize CV results:

tree_fit %>%
  collect_metrics() %>%
  print(width = Inf) %>%
  filter(.metric == "roc_auc") %>%
  mutate(tree_depth = as.factor(tree_depth)) %>%
  ggplot(mapping = aes(x = cost_complexity, y = mean, color = tree_depth)) +
  geom_point() + 
  geom_line() + 
  labs(x = "cost_complexity", y = "CV ROC AUC", color = "tree_depth") 

# A tibble: 1,000 × 8
   cost_complexity tree_depth .metric  .estimator  mean     n std_err
             <dbl>      <int> <chr>    <chr>      <dbl> <int>   <dbl>
 1        1   e-10          1 accuracy binary     0.689     5  0.0165
 2        1   e-10          1 roc_auc  binary     0.674     5  0.0185
 3        1.23e-10          1 accuracy binary     0.689     5  0.0165
 4        1.23e-10          1 roc_auc  binary     0.674     5  0.0185
 5        1.52e-10          1 accuracy binary     0.689     5  0.0165
 6        1.52e-10          1 roc_auc  binary     0.674     5  0.0185
 7        1.87e-10          1 accuracy binary     0.689     5  0.0165
 8        1.87e-10          1 roc_auc  binary     0.674     5  0.0185
 9        2.31e-10          1 accuracy binary     0.689     5  0.0165
10        2.31e-10          1 roc_auc  binary     0.674     5  0.0185
   .config               
   <chr>                 
 1 Preprocessor1_Model001
 2 Preprocessor1_Model001
 3 Preprocessor1_Model002
 4 Preprocessor1_Model002
 5 Preprocessor1_Model003
 6 Preprocessor1_Model003
 7 Preprocessor1_Model004
 8 Preprocessor1_Model004
 9 Preprocessor1_Model005
10 Preprocessor1_Model005
# ℹ 990 more rows
…
