Machine Learning Workflow: Regression Trees
…
Visualize CV results:

tree_fit %>%
  collect_metrics() %>%
  print(width = Inf) %>%
  filter(.metric == "rmse") %>%
  mutate(tree_depth = as.factor(tree_depth)) %>%
  ggplot(mapping = aes(x = cost_complexity, y = mean, color = tree_depth)) +
  geom_point() + 
  geom_line() + 
  labs(x = "cost_complexity", y = "CV mse")

# A tibble: 1,000 × 8
   cost_complexity tree_depth .metric .estimator    mean     n std_err
             <dbl>      <int> <chr>   <chr>        <dbl> <int>   <dbl>
 1    0.0000000001          1 rmse    standard   397.        5 34.7   
 2    0.0000000001          1 rsq     standard     0.342     5  0.0626
 3    0.0000000001          4 rmse    standard   378.        5 45.5   
 4    0.0000000001          4 rsq     standard     0.453     5  0.107 
 5    0.0000000001          8 rmse    standard   407.        5 39.4   
 6    0.0000000001          8 rsq     standard     0.410     5  0.0822
 7    0.0000000001         11 rmse    standard   408.        5 39.5   
 8    0.0000000001         11 rsq     standard     0.408     5  0.0817
 9    0.0000000001         15 rmse    standard   408.        5 39.5   
10    0.0000000001         15 rsq     standard     0.408     5  0.0817
   .config          
   <chr>            
 1 pre0_mod001_post0
 2 pre0_mod001_post0
 3 pre0_mod002_post0
 4 pre0_mod002_post0
 5 pre0_mod003_post0
 6 pre0_mod003_post0
 7 pre0_mod004_post0
 8 pre0_mod004_post0
 9 pre0_mod005_post0
10 pre0_mod005_post0
# ℹ 990 more rows
…
