Machine Learning Workflow: Boosting for Prediction
…
Here we tune the number of trees n_estimators and the learning rate learning_rate.

R
Python

Here we tune the number of trees trees and the number of features to use in each split mtry.

param_grid <- grid_regular(
  tree_depth(range = c(1L, 4L)),
  learn_rate(range = c(-3, -0.5), trans = log10_trans()),
  levels = c(4, 10)
  )
param_grid

# A tibble: 40 × 2
   tree_depth learn_rate
        <int>      <dbl>
 1          1    0.001  
 2          2    0.001  
 3          3    0.001  
 4          4    0.001  
 5          1    0.00190
 6          2    0.00190
 7          3    0.00190
 8          4    0.00190
 9          1    0.00359
10          2    0.00359
# ℹ 30 more rows
…
Visualize CV results:

gb_fit %>%
  collect_metrics() %>%
  print(width = Inf) %>%
  filter(.metric == "rmse") %>%
  ggplot(mapping = aes(x = learn_rate, y = mean, color = factor(tree_depth))) +
  geom_point() +
  geom_line() +
  labs(x = "Learning Rate", y = "CV AUC") +
  scale_x_log10()

# A tibble: 80 × 8
   tree_depth learn_rate .metric .estimator    mean     n std_err
        <int>      <dbl> <chr>   <chr>        <dbl> <int>   <dbl>
 1          1    0.001   rmse    standard   410.        5 42.3   
 2          1    0.001   rsq     standard     0.341     5  0.0840
 3          1    0.00190 rmse    standard   392.        5 40.9   
 4          1    0.00190 rsq     standard     0.366     5  0.0916
 5          1    0.00359 rmse    standard   375.        5 37.6   
 6          1    0.00359 rsq     standard     0.398     5  0.102 
 7          1    0.00681 rmse    standard   365.        5 36.2   
 8          1    0.00681 rsq     standard     0.417     5  0.112 
 9          1    0.0129  rmse    standard   366.        5 36.4   
10          1    0.0129  rsq     standard     0.411     5  0.112 
   .config         
   <chr>           
 1 pre0_mod01_post0
 2 pre0_mod01_post0
 3 pre0_mod02_post0
 4 pre0_mod02_post0
 5 pre0_mod03_post0
 6 pre0_mod03_post0
 7 pre0_mod04_post0
 8 pre0_mod04_post0
 9 pre0_mod05_post0
10 pre0_mod05_post0
# ℹ 70 more rows
…
