Machine Learning Workflow: Random Forests for Prediction
…
Visualize CV results:

rf_fit %>%
  collect_metrics() %>%
  print(width = Inf) %>%
  filter(.metric == "rmse") %>%
  mutate(mtry = as.factor(mtry)) %>%
  ggplot(mapping = aes(x = trees, y = mean, color = mtry)) +
  # geom_point() + 
  geom_line() + 
  labs(x = "Num. of Trees", y = "CV mse")

# A tibble: 30 × 8
    mtry trees .metric .estimator    mean     n std_err .config              
   <int> <int> <chr>   <chr>        <dbl> <int>   <dbl> <chr>                
 1     1   100 rmse    standard   308.        5  47.7   Preprocessor1_Model01
 2     1   100 rsq     standard     0.628     5   0.105 Preprocessor1_Model01
 3     1   200 rmse    standard   306.        5  46.8   Preprocessor1_Model02
 4     1   200 rsq     standard     0.631     5   0.104 Preprocessor1_Model02
 5     1   300 rmse    standard   304.        5  47.0   Preprocessor1_Model03
 6     1   300 rsq     standard     0.638     5   0.106 Preprocessor1_Model03
 7     2   100 rmse    standard   292.        5  51.7   Preprocessor1_Model04
 8     2   100 rsq     standard     0.643     5   0.109 Preprocessor1_Model04
 9     2   200 rmse    standard   294.        5  50.7   Preprocessor1_Model05
10     2   200 rsq     standard     0.643     5   0.108 Preprocessor1_Model05
# ℹ 20 more rows
…
