Machine Learning Workflow: Adding Nonlinearities to Predictive Modeling
…
Warning: package 'infer' was built under R version 4.5.2

Warning: package 'parsnip' was built under R version 4.5.2

library(tidyverse)

Wage <- as_tibble(Wage) %>%
  select(-region) %>%
  print(width = Inf)

# A tibble: 3,000 × 10
    year   age maritl           race     education       jobclass      
   <int> <int> <fct>            <fct>    <fct>           <fct>         
 1  2006    18 1. Never Married 1. White 1. < HS Grad    1. Industrial 
 2  2004    24 1. Never Married 1. White 4. College Grad 2. Information
 3  2003    45 2. Married       1. White 3. Some College 1. Industrial 
 4  2003    43 2. Married       3. Asian 4. College Grad 2. Information
 5  2005    50 4. Divorced      1. White 2. HS Grad      2. Information
 6  2008    54 2. Married       1. White 4. College Grad 2. Information
 7  2009    44 2. Married       4. Other 3. Some College 1. Industrial 
 8  2008    30 1. Never Married 3. Asian 3. Some College 2. Information
 9  2006    41 1. Never Married 2. Black 3. Some College 2. Information
10  2004    52 2. Married       1. White 2. HS Grad      2. Information
   health         health_ins logwage  wage
   <fct>          <fct>        <dbl> <dbl>
 1 1. <=Good      2. No         4.32  75.0
 2 2. >=Very Good 2. No         4.26  70.5
 3 1. <=Good      1. Yes        4.88 131. 
 4 2. >=Very Good 1. Yes        5.04 155. 
 5 1. <=Good      1. Yes        4.32  75.0
 6 2. >=Very Good 1. Yes        4.85 127. 
 7 2. >=Very Good 1. Yes        5.13 170. 
 8 1. <=Good      1. Yes        4.72 112. 
 9 2. >=Very Good 1. Yes        4.78 119. 
10 2. >=Very Good 1. Yes        4.86 129. 
# ℹ 2,990 more rows
…
7 Tuning grid

Set up the 2D grid for tuning.

R
Python

param_grid <-grid_regular(
  penalty(range = c(-5, 0), trans = log10_trans()), 
  mixture(range = c(0, 1)),
  levels = c(penalty = 50, mixture = 6)
  )
param_grid

# A tibble: 300 × 2
     penalty mixture
       <dbl>   <dbl>
 1 0.00001         0
 2 0.0000126       0
 3 0.0000160       0
 4 0.0000202       0
 5 0.0000256       0
 6 0.0000324       0
 7 0.0000409       0
 8 0.0000518       0
 9 0.0000655       0
10 0.0000829       0
# ℹ 290 more rows
…
Visualize CV criterion.

enet_fit %>%
  collect_metrics() %>%
  print(width = Inf) %>%
  filter(.metric == "rmse") %>%
  ggplot(mapping = aes(x = penalty, y = mean)) + 
  geom_point() + 
  geom_line(aes(group = mixture)) + 
  labs(x = "Penalty", y = "CV RMSE") + 
  scale_x_log10(labels = scales::label_number())

# A tibble: 600 × 8
   penalty mixture .metric .estimator   mean     n std_err .config          
     <dbl>   <dbl> <chr>   <chr>       <dbl> <int>   <dbl> <chr>            
 1 0.00001     0   rmse    standard   13.4      10 0.362   pre0_mod001_post0
 2 0.00001     0   rsq     standard    0.905    10 0.00427 pre0_mod001_post0
 3 0.00001     0.2 rmse    standard   12.7      10 0.411   pre0_mod002_post0
 4 0.00001     0.2 rsq     standard    0.910    10 0.00501 pre0_mod002_post0
 5 0.00001     0.4 rmse    standard   12.7      10 0.413   pre0_mod003_post0
 6 0.00001     0.4 rsq     standard    0.910    10 0.00502 pre0_mod003_post0
 7 0.00001     0.6 rmse    standard   12.7      10 0.413   pre0_mod004_post0
 8 0.00001     0.6 rsq     standard    0.910    10 0.00503 pre0_mod004_post0
 9 0.00001     0.8 rmse    standard   12.7      10 0.414   pre0_mod005_post0
10 0.00001     0.8 rsq     standard    0.910    10 0.00503 pre0_mod005_post0
# ℹ 590 more rows
…
