Machine Learning Workflow: Classifiers With Nonlinear Features
…
A documentation of the Default data is here. The goal is to classify whether a credit card customer will default or not.

R
Python

##| eval: true
library(GGally)
library(ISLR2)
library(tidymodels)
library(tidyverse)

Default <- as_tibble(Default) %>%
  print(width = Inf)

# A tibble: 10,000 × 4
   default student balance income
   <fct>   <fct>     <dbl>  <dbl>
 1 No      No         730. 44362.
 2 No      Yes        817. 12106.
 3 No      No        1074. 31767.
 4 No      No         529. 35704.
 5 No      No         786. 38463.
 6 No      Yes        920.  7492.
 7 No      No         826. 24905.
 8 No      Yes        809. 17600.
 9 No      No        1161. 37469.
10 No      No           0  29275.
# ℹ 9,990 more rows
…
Set up the 2D grid for tuning.

R
Python

##| eval: false
param_grid <-grid_regular(
  penalty(range = c(-5, 0), trans = log10_trans()), 
  mixture(range = c(0, 1)),
  levels = c(penalty = 50, mixture = 6)
  )
param_grid

# A tibble: 300 × 2
     penalty mixture
       <dbl>   <dbl>
 1 0.00001         0
 2 0.0000126       0
 3 0.0000160       0
 4 0.0000202       0
 5 0.0000256       0
 6 0.0000324       0
 7 0.0000409       0
 8 0.0000518       0
 9 0.0000655       0
10 0.0000829       0
# ℹ 290 more rows
…
Visualize CV criterion.

##| eval: false
enet_fit %>%
  collect_metrics() %>%
  print(width = Inf) %>%
  filter(.metric == "rmse") %>%
  ggplot(mapping = aes(x = penalty, y = mean)) + 
  geom_point() + 
  geom_line(aes(group = mixture)) + 
  labs(x = "Penalty", y = "CV RMSE") + 
  scale_x_log10(labels = scales::label_number())

# A tibble: 600 × 8
     penalty mixture .metric .estimator   mean     n std_err
       <dbl>   <dbl> <chr>   <chr>       <dbl> <int>   <dbl>
 1 0.00001         0 rmse    standard   35.1      10  0.431 
 2 0.00001         0 rsq     standard    0.300    10  0.0134
 3 0.0000126       0 rmse    standard   35.1      10  0.431 
 4 0.0000126       0 rsq     standard    0.300    10  0.0134
 5 0.0000160       0 rmse    standard   35.1      10  0.431 
 6 0.0000160       0 rsq     standard    0.300    10  0.0134
 7 0.0000202       0 rmse    standard   35.1      10  0.431 
 8 0.0000202       0 rsq     standard    0.300    10  0.0134
 9 0.0000256       0 rmse    standard   35.1      10  0.431 
10 0.0000256       0 rsq     standard    0.300    10  0.0134
   .config               
   <chr>                 
 1 Preprocessor1_Model001
 2 Preprocessor1_Model001
 3 Preprocessor1_Model002
 4 Preprocessor1_Model002
 5 Preprocessor1_Model003
 6 Preprocessor1_Model003
 7 Preprocessor1_Model004
 8 Preprocessor1_Model004
 9 Preprocessor1_Model005
10 Preprocessor1_Model005
# ℹ 590 more rows
…
